C:\Simepar_Repositorios\telemetry_api\src\main\java\org\simepar\telemetry_api\Application.java
C:\Simepar_Repositorios\telemetry_api\src\main\java\org\simepar\telemetry_api\dao\OffSetDAO.java
C:\Simepar_Repositorios\telemetry_api\src\main\java\org\simepar\telemetry_api\jdbc\OrgaoJDBC.java
C:\Simepar_Repositorios\telemetry_api\src\main\java\org\simepar\telemetry_api\JacksonConfig.java
C:\Simepar_Repositorios\telemetry_api\src\main\java\org\simepar\telemetry_api\controller\ApplicationErrorController.java
C:\Simepar_Repositorios\telemetry_api\src\main\java\org\simepar\telemetry_api\model\Orgao.java
C:\Simepar_Repositorios\telemetry_api\src\main\java\org\simepar\telemetry_api\controller\RootController.java
C:\Simepar_Repositorios\telemetry_api\src\main\java\org\simepar\telemetry_api\dao\OrgaoDAO.java
C:\Simepar_Repositorios\telemetry_api\src\main\java\org\simepar\telemetry_api\jdbc\OffSetJDBC.java
C:\Simepar_Repositorios\telemetry_api\src\main\java\org\simepar\telemetry_api\model\OffSet.java
C:\Simepar_Repositorios\telemetry_api\src\main\java\org\simepar\telemetry_api\ServletInitializer.java
C:\Simepar_Repositorios\telemetry_api\src\main\java\org\simepar\telemetry_api\controller\OffSetController.java
C:\Simepar_Repositorios\telemetry_api\src\main\java\org\simepar\telemetry_api\controller\OrgaoController.java
C:\Simepar_Repositorios\telemetry_api\src\main\java\org\simepar\telemetry_api\SwaggerConfig.java
